%YAML 1.1
%TAG !u! tag:unity3d.com,2011:
--- !u!1045 &1
EditorBuildSettings:
  m_ObjectHideFlags: 0
  serializedVersion: 2
  m_Scenes:
  - enabled: 1
    path: Assets/Scenes/MainScene.unity
    guid: d746ad2abdce248a288b1f5119cb9bb9
  - enabled: 0
    path: 
    guid: 00000000000000000000000000000000
  - enabled: 0
    path: Assets/Scenes/intro.unity
    guid: 7d20dd72b43a6446fb5cd68855ac2545
  - enabled: 1
    path: Assets/Scenes/menu.unity
    guid: 4388b93e21a634d68a0aed6e2d201bd4
  m_configObjects: {}
